<svg width="50" height="49" viewBox="0 0 50 49" fill="none" xmlns="http://www.w3.org/2000/svg">
<path d="M0.887695 0.886719L10.3552 48.1156" stroke="#447ABE" stroke-width="1.5" stroke-miterlimit="10" stroke-linecap="square"/>
<path d="M5.61955 24.5015H29.2882L25.1462 4.03564H1.47754" stroke="#447ABE" stroke-width="1.5" stroke-miterlimit="10" stroke-linecap="square"/>
<path d="M22.8799 24.5045L24.5564 32.3759H48.2251L38.7576 22.8318L44.083 13.4844H27.0219" stroke="#447ABE" stroke-width="1.5" stroke-miterlimit="10" stroke-linecap="square"/>
</svg>
