<svg width="18" height="11" viewBox="0 0 18 11" fill="none" xmlns="http://www.w3.org/2000/svg">
<path d="M1.66699 1.33463L9.00032 8.66797L16.3337 1.33463" stroke="#222222" stroke-width="2" stroke-miterlimit="10"/>
</svg>
