<svg width="8" height="8" viewBox="0 0 8 8" fill="none" xmlns="http://www.w3.org/2000/svg">
<path fill-rule="evenodd" clip-rule="evenodd" d="M2.96291 4.00003L5.80987e-05 6.9629L1.03715 7.99999L3.99999 5.03712L6.96285 8L7.99994 6.96291L5.03708 4.00003L8 1.03709L6.96291 0L3.99999 2.96294L1.03709 1.18944e-05L0 1.03711L2.96291 4.00003ZM6.96242 7.7354L6.96285 7.73584L7.73578 6.96291L4.77292 4.00003L7.73584 1.03709L7.73534 1.0366L4.77244 3.99956L7.7353 6.9625L6.96242 7.7354ZM0.264176 1.03709L0.264162 1.03711L2.01996 2.79291L0.264176 1.03709ZM3.99998 4.77298L3.99951 4.77251L1.0367 7.73538L1.03715 7.73583L3.99998 4.77298Z" fill="white"/>
</svg>
