<svg width="16" height="16" viewBox="0 0 16 16" fill="none" xmlns="http://www.w3.org/2000/svg">
<path d="M1 1.02588L15 15.0424" stroke="#222222" stroke-width="2" stroke-miterlimit="10"/>
<path d="M1 15.0424L15 1.02588" stroke="#222222" stroke-width="2" stroke-miterlimit="10"/>
</svg>
