<svg width="1600" height="356" viewBox="0 0 1600 356" fill="none" xmlns="http://www.w3.org/2000/svg">
<path d="M1600 146.122L1600 136.19C1493.19 94.6327 815.63 -144.517 1.13577e-05 129.917L3.11225e-05 356L1600 356L1600 146.122Z" fill="#7F338A"/>
</svg>
