<svg width="22" height="22" viewBox="0 0 17 17" fill="none" xmlns="http://www.w3.org/2000/svg">
<path d="M12.0639 11.0612L16.0839 15.0812C16.3605 15.3578 16.3605 15.8063 16.0839 16.0829C15.8073 16.3595 15.3588 16.3595 15.0821 16.0829L11.0622 12.063C9.9716 12.9354 8.58823 13.457 7.08301 13.457C3.56219 13.457 0.708008 10.6028 0.708008 7.08203C0.708008 3.56122 3.56219 0.707031 7.08301 0.707031C10.6038 0.707031 13.458 3.56122 13.458 7.08203C13.458 8.58725 12.9363 9.97062 12.0639 11.0612ZM7.08301 12.0404C9.82142 12.0404 12.0413 9.82044 12.0413 7.08203C12.0413 4.34362 9.82142 2.1237 7.08301 2.1237C4.3446 2.1237 2.12467 4.34362 2.12467 7.08203C2.12467 9.82044 4.3446 12.0404 7.08301 12.0404Z" fill="white"/>
</svg>
